"id","first_name","last_name","email","company_name","mobile_number","other_number","address_title","address_1","address_2","city","state","country","zip_code","status",
"1","pardeep","kumar","pk@gmail.com","dfsgdfsgdfd3","46536537","695975979","1","hdfhsgfdhgfh","hfdhf","chd","hdff","fhdhgfdh","457576","1",
"2","Ram","sdgdg","dsgds@sdgdfsg.gdj","dfsgdfsgdfd3","456577756","436577577","1","fhdhfhfh","gfdhg","mohali","ghfdhgff","gfdhg","5765767","1",
"3","Vijay","driver","sdfaf@sdgfsd.fgj","dfhdfh","57487989","68797989","1","kfhjkhjk","khkhjk","chd","hjfjhj","jhfjhj","76876","1",
"4","Prakash","sdfgdfg","adg@dgsdfg.fhyfh","dggdfgfdg","4563576","453657676","1","hfhfhgfh","fhhgdhfh","chd","fhdhfdhgf","hfdhfh","5765767","1",
"5","Ramesh","hdfshgfh","dfsgdf@fdasfds.sdafd","DFSH","4325453","356456547","1","fadsfsdaf","sdfagdfgdf","mohali","dfgdfsgdf","dsfhdfh","575676","1",
