"id","user_id","driver_id","trip_date_from","trip_date_to","pickup_time","address","state","city","zip","desination_1","desination_2","approx_hours","contact_name","contact_number","comments","service_id","airport","airline","flight_number","manaual_shift","promo_code","status",
"1","1","2","2013-09-27 19:30:04","2013-09-27 21:25:13","19:30:04","mohali 4 phasae","Punjab","mohali","34545456","7 phase","5 pahase","2","ashu","1234567890","therer are no commens from my side","1","","","0","0","5345efx1","1",
"2","3","3","2013-10-03 06:14:00","2013-09-02 19:00:00","06:14:00","chd - 10sec ","chd","chd","453453","dfgtdfggfgDFGHF","fghfhfghfgftgjGHJGJ","4","gurpreet","1234567890","fhytyutyuyu bvghgh","1","","","0","0","fdsfdgdg","5",
