"trip_date_from","trip_date_to","pickup_time","address","state","city","zip","desination_1","desination_2","approx_hours","id","reservation_id","user_id","driver_id","total_time","mileage_start","mileage_end","total_miles","hourly_rate","total_hourly_fee","fee_per_mile","total_mileage_fee","misc_fee_toll_1","misc_fee_toll_1_notes","misc_fee_toll_2","misc_fee_toll_2_notes","tip_amount","promo_discount","misc_discount_amount","misc_discount_notes","driver_fee_per_hour","driver_fee_per_mile","driver_misc_fee","driver_misc_fee_notes","total_due_to_driver","trip_notes","member_age","first_name","driver_name",
"2013-10-11 00:00:00","2013-10-11 00:08:00","00:00:00","abc","Punjab","Mohalli","123456","xyz","gf","11","","","","","","","","","","","","","","","","","","","","","","","","","","","","Harshal","Himanshu",
"2013-10-11 10:26:00","2013-10-11 09:00:00","10:26:00","sad","asd","das","324","wer","23232","324","","","","","","","","","","","","","","","","","","","","","","","","","","","","Harshal","Himanshu",
